{
	"name": "{{ PROJECT_NAME} }",
	"components": [
		{
			"name": "{{ COMPONENT_NAME_1 }}",
			"action_type":"delete"
		},
        {
			"name": "{{ COMPONENT_NAME_2 }}",
			"action_type":"delete"
		},
		{
			"name": "{{ COMPONENT_NAME_3 }}",
			"type":"job",
			"flavor": "python"
		}
	]
}
